PIN:MEMLATENCIES 1.0. 0x0
#
# DCACHE stats
#
# L1 Data Cache:
# Load-Hits:             11784732   83.35%
# Load-Misses:            2353956   16.65%
# Load-Accesses:         14138688  100.00%
# 
# Store-Hits:             5364916   97.70%
# Store-Misses:            126147    2.30%
# Store-Accesses:         5491063  100.00%
# 
# Total-Hits:            17149648   87.37%
# Total-Misses:           2480103   12.63%
# Total-Accesses:        19629751  100.00%

